1.976527976989746094e+01	-1.109603271484375000e+02	-6.017538452148437500e+02
1.982937049865722656e+01	-1.109458465576171875e+02	-6.012586059570312500e+02
1.983562088012695312e+01	-1.109270248413085938e+02	-6.022455444335937500e+02
1.989844894409179688e+01	-1.109293518066406250e+02	-6.007645263671875000e+02
1.992945861816406250e+01	-1.108860626220703125e+02	-6.027282104492187500e+02
2.000815582275390625e+01	-1.106807708740234375e+02	-6.015324096679687500e+02
2.003600502014160156e+01	-1.108852615356445312e+02	-6.002863159179687500e+02
2.007676887512207031e+01	-1.106441879272460938e+02	-6.019426269531250000e+02
2.007786750793457031e+01	-1.106016998291015625e+02	-6.011287841796875000e+02
2.012434768676757812e+01	-1.106690216064453125e+02	-6.023647460937500000e+02
2.016039276123046875e+01	-1.105363845825195312e+02	-6.006613159179687500e+02
2.017256546020507812e+01	-1.107965164184570312e+02	-6.031532592773437500e+02
2.017528724670410156e+01	-1.108392715454101562e+02	-5.998088378906250000e+02
2.026168060302734375e+01	-1.104662933349609375e+02	-6.001807861328125000e+02
2.028548049926757812e+01	-1.103456192016601562e+02	-6.015749511718750000e+02
2.031384468078613281e+01	-1.105501251220703125e+02	-6.027142944335937500e+02
2.032562255859375000e+01	-1.102413711547851562e+02	-6.010285034179687500e+02
2.033113670349121094e+01	-1.107750244140625000e+02	-5.993385620117187500e+02
2.037526512145996094e+01	-1.103965606689453125e+02	-5.996920166015625000e+02
2.038324737548828125e+01	-1.101426925659179688e+02	-6.005437011718750000e+02
2.040106391906738281e+01	-1.103256378173828125e+02	-6.021972656250000000e+02
2.042247200012207031e+01	-1.107076339721679688e+02	-6.035742797851562500e+02
2.045206260681152344e+01	-1.100415267944335938e+02	-6.000756835937500000e+02
2.049385261535644531e+01	-1.107068481445312500e+02	-5.988719482421875000e+02
2.051320648193359375e+01	-1.103306884765625000e+02	-5.992128906250000000e+02
2.054315567016601562e+01	-1.099674987792968750e+02	-6.013412475585937500e+02
2.055271911621093750e+01	-1.099655761718750000e+02	-5.995811767578125000e+02
2.055595016479492188e+01	-1.098555984497070312e+02	-6.008696899414062500e+02
2.056095886230468750e+01	-1.104439392089843750e+02	-6.031532592773437500e+02
2.058306694030761719e+01	-1.097375640869140625e+02	-6.004050903320312500e+02
2.060227012634277344e+01	-1.100061492919921875e+02	-6.018405151367187500e+02
2.064327430725097656e+01	-1.096276321411132812e+02	-5.999607543945312500e+02
2.066297340393066406e+01	-1.101927261352539062e+02	-6.027246093750000000e+02
2.068904113769531250e+01	-1.098875656127929688e+02	-5.991074218750000000e+02
2.069122505187988281e+01	-1.102420654296875000e+02	-5.987840576171875000e+02
2.069525146484375000e+01	-1.106210327148437500e+02	-6.039816284179687500e+02
2.071990394592285156e+01	-1.095384826660156250e+02	-5.994833374023437500e+02
2.072105407714843750e+01	-1.106018142700195312e+02	-5.984395751953125000e+02
2.077617263793945312e+01	-1.095930099487304688e+02	-6.012097167968750000e+02
2.078368568420410156e+01	-1.097161788940429688e+02	-6.015924072265625000e+02
2.078861618041992188e+01	-1.094695053100585938e+02	-6.007596435546875000e+02
2.079788589477539062e+01	-1.099494094848632812e+02	-6.023226318359375000e+02
2.083581542968750000e+01	-1.097755966186523438e+02	-5.986951293945312500e+02
2.083853340148925781e+01	-1.093411636352539062e+02	-6.003000488281250000e+02
2.084445762634277344e+01	-1.103463211059570312e+02	-6.036049194335937500e+02
2.084715843200683594e+01	-1.094378738403320312e+02	-5.990231323242187500e+02
2.087946510314941406e+01	-1.101323699951171875e+02	-5.983587646484375000e+02
2.088293457031250000e+01	-1.092413635253906250e+02	-5.998589477539062500e+02
2.094742584228515625e+01	-1.096942367553710938e+02	-6.019476318359375000e+02
2.095056343078613281e+01	-1.091406936645507812e+02	-5.994078979492187500e+02
2.095455741882324219e+01	-1.104929428100585938e+02	-5.980126342773437500e+02
2.096803092956542969e+01	-1.105344314575195312e+02	-6.043889160156250000e+02
2.096914672851562500e+01	-1.100949401855468750e+02	-6.031998901367187500e+02
2.102302551269531250e+01	-1.093209609985351562e+02	-5.986406250000000000e+02
2.103867530822753906e+01	-1.096772918701171875e+02	-5.983126831054687500e+02
2.106831741333007812e+01	-1.090077590942382812e+02	-5.989849243164062500e+02
2.107731056213378906e+01	-1.092875823974609375e+02	-6.010792236328125000e+02
2.107812309265136719e+01	-1.089132156372070312e+02	-5.997478637695312500e+02
2.107953453063964844e+01	-1.098621673583984375e+02	-6.027774658203125000e+02
2.108985710144042969e+01	-1.091345062255859375e+02	-6.006434936523437500e+02
2.110162162780761719e+01	-1.094244461059570312e+02	-6.015594482421875000e+02
2.111406135559082031e+01	-1.102678146362304688e+02	-6.040355834960937500e+02
2.113375091552734375e+01	-1.100044403076171875e+02	-5.979855957031250000e+02
2.115283775329589844e+01	-1.089325637817382812e+02	-6.001904907226562500e+02
2.118155860900878906e+01	-1.096310348510742188e+02	-6.023619995117187500e+02
2.118200683593750000e+01	-1.092565383911132812e+02	-5.982955322265625000e+02
2.119147109985351562e+01	-1.087534484863281250e+02	-5.993853149414062500e+02
2.122428131103515625e+01	-1.088376388549804688e+02	-5.985411376953125000e+02
2.124081039428710938e+01	-1.104478225708007812e+02	-6.047962646484375000e+02
2.124782943725585938e+01	-1.100191192626953125e+02	-6.036312866210937500e+02
2.125731277465820312e+01	-1.103418350219726562e+02	-5.976451416015625000e+02
2.126033020019531250e+01	-1.095146179199218750e+02	-5.979645996093750000e+02
2.126920318603515625e+01	-1.094330139160156250e+02	-6.019948730468750000e+02
2.129341888427734375e+01	-1.086327972412109375e+02	-5.989984741210937500e+02
2.134766006469726562e+01	-1.091410980224609375e+02	-6.013522949218750000e+02
2.136664009094238281e+01	-1.090231246948242188e+02	-5.980299682617187500e+02
2.136929130554199219e+01	-1.086219100952148438e+02	-5.998193359375000000e+02
2.136930656433105469e+01	-1.101929092407226562e+02	-6.044676513671875000e+02
2.138055229187011719e+01	-1.097799148559570312e+02	-6.031976318359375000e+02
2.138912010192871094e+01	-1.089795074462890625e+02	-6.009730834960937500e+02
2.139417457580566406e+01	-1.088483810424804688e+02	-6.005866699218750000e+02
2.139821815490722656e+01	-1.098329086303710938e+02	-5.976240844726562500e+02
2.142281723022460938e+01	-1.104040832519531250e+02	-6.052441406250000000e+02
2.145279121398925781e+01	-1.085448226928710938e+02	-5.981831665039062500e+02
2.147328186035156250e+01	-1.095581283569335938e+02	-6.027692871093750000e+02
2.148723030090332031e+01	-1.083422622680664062e+02	-5.987306518554687500e+02
2.150543975830078125e+01	-1.093114242553710938e+02	-5.976436767578125000e+02
2.151073074340820312e+01	-1.104047698974609375e+02	-6.057341308593750000e+02
2.151808547973632812e+01	-1.099124526977539062e+02	-6.040848999023437500e+02
2.152201843261718750e+01	-1.083392944335937500e+02	-5.993692626953125000e+02
2.153212738037109375e+01	-1.091626129150390625e+02	-6.017608032226562500e+02
2.153878211975097656e+01	-1.016374740600585938e+02	-6.359193115234375000e+02
2.154561042785644531e+01	-1.011619796752929688e+02	-6.358826293945312500e+02
2.155153846740722656e+01	-1.101044616699218750e+02	-6.049459838867187500e+02
2.155243873596191406e+01	-1.006864929199218750e+02	-6.358459472656250000e+02
2.155926704406738281e+01	-1.002109985351562500e+02	-6.358092651367187500e+02
2.156269645690917969e+01	-1.101855239868164062e+02	-5.972834472656250000e+02
2.156573104858398438e+01	-1.086031494140625000e+02	-6.003020629882812500e+02
2.157371520996093750e+01	-1.093196945190429688e+02	-6.023035278320312500e+02
2.159864425659179688e+01	-1.104054641723632812e+02	-6.062241210937500000e+02
2.163057136535644531e+01	-1.081972579956054688e+02	-5.983014526367187500e+02
2.165695190429687500e+01	-1.096749725341796875e+02	-6.036645507812500000e+02
2.166188240051269531e+01	-1.087595520019531250e+02	-5.976640014648437500e+02
2.167936706542968750e+01	-1.088988571166992188e+02	-6.013189086914062500e+02
2.167967605590820312e+01	-1.082513351440429688e+02	-5.978652343750000000e+02
2.168655776977539062e+01	-1.104061508178710938e+02	-6.067141113281250000e+02
2.169896697998046875e+01	-1.020621490478515625e+02	-6.357749633789062500e+02
2.169959068298339844e+01	-1.096380996704101562e+02	-5.973106689453125000e+02
2.171119880676269531e+01	-1.100742034912109375e+02	-6.054366455078125000e+02
2.171740341186523438e+01	-1.104257659912109375e+02	-6.072099609375000000e+02
2.172693061828613281e+01	-1.015592193603515625e+02	-6.354857788085937500e+02
2.172831344604492188e+01	-1.079252471923828125e+02	-5.985866699218750000e+02
2.174027252197265625e+01	-1.104474639892578125e+02	-6.077067260742187500e+02
2.175456047058105469e+01	-1.098403625488281250e+02	-6.045765380859375000e+02
2.175880813598632812e+01	-1.083139190673828125e+02	-5.999355468750000000e+02
2.176197052001953125e+01	-1.086479034423828125e+02	-6.008377075195312500e+02
2.176218795776367188e+01	-1.079674148559570312e+02	-5.990756225585937500e+02
2.176620674133300781e+01	-1.091585006713867188e+02	-5.973491210937500000e+02
2.176924133300781250e+01	-1.009928054809570312e+02	-6.354736328125000000e+02
2.178013038635253906e+01	-1.092960662841796875e+02	-6.027337036132812500e+02
2.178510093688964844e+01	-1.104543762207031250e+02	-6.082024536132812500e+02
2.180551910400390625e+01	-1.094180526733398438e+02	-6.031973876953125000e+02
2.181867218017578125e+01	-1.004568557739257812e+02	-6.354608154296875000e+02
2.182081985473632812e+01	-1.090556564331054688e+02	-6.020767822265625000e+02
2.182272529602050781e+01	-1.100689544677734375e+02	-6.059219360351562500e+02
2.182509994506835938e+01	-1.078908767700195312e+02	-5.981262207031250000e+02
2.183127784729003906e+01	-9.994317626953125000e+01	-6.354863281250000000e+02
2.184624862670898438e+01	-1.020779495239257812e+02	-6.353214721679687500e+02
2.184872627258300781e+01	-1.104454421997070312e+02	-6.086947631835937500e+02
2.186083030700683594e+01	-1.024863128662109375e+02	-6.356287841796875000e+02
2.187258911132812500e+01	-1.078526763916015625e+02	-5.976547241210937500e+02
2.188839721679687500e+01	-1.076124114990234375e+02	-5.984053344726562500e+02
2.189122772216796875e+01	-1.100690231323242188e+02	-6.064079589843750000e+02
2.190597152709960938e+01	-1.017193527221679688e+02	-6.350397338867187500e+02
2.190951919555664062e+01	-1.099471054077148438e+02	-5.970142822265625000e+02
2.191628837585449219e+01	-1.083101882934570312e+02	-5.974232177734375000e+02
2.191800498962402344e+01	-1.012683258056640625e+02	-6.350368652343750000e+02
2.193089675903320312e+01	-1.088545761108398438e+02	-6.017164916992187500e+02
2.193185043334960938e+01	-1.098141250610351562e+02	-6.050889282226562500e+02
2.193453788757324219e+01	-1.079864807128906250e+02	-5.995850219726562500e+02
2.193617248535156250e+01	-1.074433898925781250e+02	-5.979934082031250000e+02
2.194116783142089844e+01	-1.100792007446289062e+02	-6.068992309570312500e+02
2.195238685607910156e+01	-1.104027633666992188e+02	-6.091798095703125000e+02
2.195249748229980469e+01	-1.025183868408203125e+02	-6.351563720703125000e+02
2.196488571166992188e+01	-1.090744934082031250e+02	-6.024575195312500000e+02
2.197334098815917969e+01	-1.021111831665039062e+02	-6.348469238281250000e+02
2.197479438781738281e+01	-1.087822494506835938e+02	-5.971968383789062500e+02
2.197512435913085938e+01	-1.074431381225585938e+02	-5.974287719726562500e+02
2.197871971130371094e+01	-1.083357086181640625e+02	-6.004320068359375000e+02
2.198432159423828125e+01	-1.100902252197265625e+02	-6.074025268554687500e+02
2.198861312866210938e+01	-1.076272430419921875e+02	-5.988255004882812500e+02
2.199106025695800781e+01	-1.095455474853515625e+02	-6.041570434570312500e+02
2.200086975097656250e+01	-1.007295532226562500e+02	-6.350681762695312500e+02
2.201214599609375000e+01	-1.072194519042968750e+02	-5.985363769531250000e+02
2.201214790344238281e+01	-1.069889221191406250e+02	-5.980863037109375000e+02
2.201531600952148438e+01	-1.071394577026367188e+02	-5.976759643554687500e+02
2.201935195922851562e+01	-1.093971328735351562e+02	-6.036638793945312500e+02
2.202269363403320312e+01	-1.029104690551757812e+02	-6.354826049804687500e+02
2.202616310119628906e+01	-1.025619888305664062e+02	-6.346803588867187500e+02
2.204111862182617188e+01	-1.100839462280273438e+02	-6.078962402343750000e+02
2.204901504516601562e+01	-1.029368896484375000e+02	-6.349745483398437500e+02
2.205604553222656250e+01	-1.103600769042968750e+02	-6.096648559570312500e+02
2.205780220031738281e+01	-1.093331451416015625e+02	-5.969969482421875000e+02
2.205990219116210938e+01	-1.044879608154296875e+02	-6.335629882812500000e+02
2.206519889831542969e+01	-1.086104812622070312e+02	-6.013129272460937500e+02
2.207165908813476562e+01	-1.029810562133789062e+02	-6.344718017578125000e+02
2.207350158691406250e+01	-1.097803726196289062e+02	-6.056096801757812500e+02
2.207739067077636719e+01	-1.001931991577148438e+02	-6.350904541015625000e+02
2.207763862609863281e+01	-1.033939514160156250e+02	-6.341532592773437500e+02
2.208411979675292969e+01	-1.065099945068359375e+02	-5.981577148437500000e+02
2.208474159240722656e+01	-1.067528076171875000e+02	-5.976958618164062500e+02
2.208536529541015625e+01	-1.069959869384765625e+02	-5.972332763671875000e+02
2.208844947814941406e+01	-1.041025848388671875e+02	-6.336747436523437500e+02
2.209570312500000000e+01	-1.078654708862304688e+02	-5.971718750000000000e+02
2.209890747070312500e+01	-1.100794830322265625e+02	-6.083833618164062500e+02
2.210328865051269531e+01	-9.967535400390625000e+01	-6.351633911132812500e+02
2.210330009460449219e+01	-1.068247604370117188e+02	-5.984510498046875000e+02
2.210562324523925781e+01	-1.039100265502929688e+02	-6.340507812500000000e+02
2.211027526855468750e+01	-1.033377532958984375e+02	-6.347156372070312500e+02
2.211200523376464844e+01	-1.016132202148437500e+02	-6.345508422851562500e+02
2.212187957763671875e+01	-1.091071624755859375e+02	-6.029149780273437500e+02
2.212569427490234375e+01	-1.021872787475585938e+02	-6.343845825195312500e+02
2.212928199768066406e+01	-1.026005859375000000e+02	-6.342815551757812500e+02
2.213515090942382812e+01	-1.076565628051757812e+02	-5.992943725585937500e+02
2.214504241943359375e+01	-1.080050277709960938e+02	-6.000726318359375000e+02
2.215395736694335938e+01	-1.032942352294921875e+02	-6.352362670898437500e+02
2.215583801269531250e+01	-1.095464782714843750e+02	-6.047362060546875000e+02
2.215613174438476562e+01	-1.088369598388671875e+02	-6.021378784179687500e+02
2.215616226196289062e+01	-1.045724563598632812e+02	-6.330815429687500000e+02
2.215847587585449219e+01	-1.010149078369140625e+02	-6.346649780273437500e+02
2.215970420837402344e+01	-1.103173904418945312e+02	-6.101498413085937500e+02
2.216464996337890625e+01	-1.100666046142578125e+02	-6.088674316406250000e+02
2.216800308227539062e+01	-1.097555465698242188e+02	-6.061180419921875000e+02
2.217496681213378906e+01	-1.043410644531250000e+02	-6.339440917968750000e+02
2.218025398254394531e+01	-1.037669982910156250e+02	-6.344943847656250000e+02
2.218908119201660156e+01	-1.041303405761718750e+02	-6.332984619140625000e+02
2.219087028503417969e+01	-1.083219985961914062e+02	-5.969636840820312500e+02
2.219716835021972656e+01	-1.036799774169921875e+02	-6.336024780273437500e+02
2.220145606994628906e+01	-1.097810058593750000e+02	-6.066207275390625000e+02
2.221094512939453125e+01	-1.072536010742187500e+02	-5.990469360351562500e+02
2.221142005920410156e+01	-1.029186859130859375e+02	-6.340158691406250000e+02
2.222419738769531250e+01	-1.083518218994140625e+02	-6.009108886718750000e+02
2.224190521240234375e+01	-1.097827911376953125e+02	-6.071026611328125000e+02
2.225063133239746094e+01	-1.100293655395507812e+02	-6.093434448242187500e+02
2.225427436828613281e+01	-1.068645324707031250e+02	-5.988511962890625000e+02
2.225552368164062500e+01	-1.074162979125976562e+02	-5.969681396484375000e+02
2.225634193420410156e+01	-1.097086944580078125e+02	-5.967451171875000000e+02
2.226170921325683594e+01	-1.102277832031250000e+02	-6.106284790039062500e+02
2.226569366455078125e+01	-1.032262649536132812e+02	-6.337398071289062500e+02
2.226649665832519531e+01	-1.046507034301757812e+02	-6.326026000976562500e+02
2.226745605468750000e+01	-1.004740142822265625e+02	-6.346924438476562500e+02
2.226960754394531250e+01	-1.091359786987304688e+02	-6.033925170898437500e+02
2.227751350402832031e+01	-1.064926986694335938e+02	-5.986190185546875000e+02
2.227962875366210938e+01	-1.036706161499023438e+02	-6.349716186523437500e+02
2.228394889831542969e+01	-1.095151596069335938e+02	-6.052635498046875000e+02
2.229013442993164062e+01	-1.041940307617187500e+02	-6.343255615234375000e+02
2.229683303833007812e+01	-1.088158111572265625e+02	-5.968027343750000000e+02
2.230489349365234375e+01	-1.090515975952148438e+02	-6.149277954101562500e+02
2.230922126770019531e+01	-1.019307861328125000e+02	-6.340991821289062500e+02
2.231068229675292969e+01	-1.097593765258789062e+02	-6.075905761718750000e+02
2.231219863891601562e+01	-1.089222717285156250e+02	-6.154085083007812500e+02
2.231588745117187500e+01	-1.041939392089843750e+02	-6.328471679687500000e+02
2.231655120849609375e+01	-1.085954971313476562e+02	-6.017666625976562500e+02
2.231950378417968750e+01	-1.087929458618164062e+02	-6.158891601562500000e+02
2.232149696350097656e+01	-1.076805725097656250e+02	-5.997564697265625000e+02
2.232461547851562500e+01	-1.091905822753906250e+02	-6.144503784179687500e+02
2.232760238647460938e+01	-1.011970062255859375e+02	-6.343235473632812500e+02
2.232992744445800781e+01	-1.024194107055664062e+02	-6.338972167968750000e+02
2.233196640014648438e+01	-1.099686813354492188e+02	-6.098150024414062500e+02
2.233214950561523438e+01	-1.086635437011718750e+02	-6.163693847656250000e+02
2.234591293334960938e+01	-1.088503189086914062e+02	-6.025726318359375000e+02
2.234911155700683594e+01	-1.093312835693359375e+02	-6.139734497070312500e+02
2.235745811462402344e+01	-1.101292037963867188e+02	-6.111067504882812500e+02
2.236206817626953125e+01	-1.097513351440429688e+02	-6.080809326171875000e+02
2.236903953552246094e+01	-1.037406463623046875e+02	-6.330810546875000000e+02
2.237287521362304688e+01	-1.091860580444335938e+02	-6.039034423828125000e+02
2.237360954284667969e+01	-1.094719772338867188e+02	-6.134965820312500000e+02
2.238413238525390625e+01	-9.945005035400390625e+01	-6.348296508789062500e+02
2.238932037353515625e+01	-1.080368118286132812e+02	-6.005447998046875000e+02
2.238977050781250000e+01	-1.047233657836914062e+02	-6.321259765625000000e+02
2.239236831665039062e+01	-1.085334625244140625e+02	-6.168461303710937500e+02
2.239455223083496094e+01	-1.015070648193359375e+02	-6.340930786132812500e+02
2.239810562133789062e+01	-1.096126708984375000e+02	-6.130197143554687500e+02
2.240530014038085938e+01	-1.040469970703125000e+02	-6.347069702148437500e+02
2.240709686279296875e+01	-9.990933227539062500e+01	-6.346767578125000000e+02
2.240840721130371094e+01	-1.072873916625976562e+02	-5.995101928710937500e+02
2.241447448730468750e+01	-1.098946304321289062e+02	-6.102864379882812500e+02
2.241983032226562500e+01	-1.028282089233398438e+02	-6.335601806640625000e+02
2.242133331298828125e+01	-1.097345809936523438e+02	-6.085658569335937500e+02
2.242260360717773438e+01	-1.097533721923828125e+02	-6.125427856445312500e+02
2.242333793640136719e+01	-1.032905502319335938e+02	-6.333123168945312500e+02
2.242578506469726562e+01	-1.078368606567382812e+02	-5.967028198242187500e+02
2.242802619934082031e+01	-1.100202255249023438e+02	-6.115873413085937500e+02
2.243534278869628906e+01	-1.092470474243164062e+02	-6.044252319335937500e+02
2.243808174133300781e+01	-1.068814849853515625e+02	-5.993075561523437500e+02
2.244572257995605469e+01	-1.007699813842773438e+02	-6.343215942382812500e+02
2.244709968566894531e+01	-1.098940658569335938e+02	-6.120659179687500000e+02
2.245258712768554688e+01	-1.084033813476562500e+02	-6.173228759765625000e+02
2.245756340026855469e+01	-1.095132522583007812e+02	-6.068438720703125000e+02
2.245839309692382812e+01	-1.092736968994140625e+02	-5.966178588867187500e+02
2.245864105224609375e+01	-1.042606124877929688e+02	-6.323767089843750000e+02
2.245964622497558594e+01	-1.094130020141601562e+02	-6.058299560546875000e+02
2.247072219848632812e+01	-1.064754104614257812e+02	-5.990798339843750000e+02
2.247268295288085938e+01	-1.097169189453125000e+02	-6.090341796875000000e+02
2.248016166687011719e+01	-1.094401779174804688e+02	-6.064019775390625000e+02
2.248301124572753906e+01	-1.083501892089843750e+02	-6.013831176757812500e+02
2.248616218566894531e+01	-1.020833206176757812e+02	-6.337145385742187500e+02
2.248650741577148438e+01	-1.097951431274414062e+02	-6.107616577148437500e+02
2.250345993041992188e+01	-1.088897247314453125e+02	-6.140717773437500000e+02
2.250603103637695312e+01	-1.017530136108398438e+02	-6.338073730468750000e+02
2.251064872741699219e+01	-1.087378616333007812e+02	-6.145514526367187500e+02
2.251175308227539062e+01	-1.090397949218750000e+02	-6.135990600585937500e+02
2.251199340820312500e+01	-1.092502899169921875e+02	-6.049462890625000000e+02
2.251280593872070312e+01	-1.082733001708984375e+02	-6.177996215820312500e+02
2.251952362060546875e+01	-1.088655700683593750e+02	-6.030643310546875000e+02
2.252661705017089844e+01	-1.086047592163085938e+02	-6.150397338867187500e+02
2.252946281433105469e+01	-1.096680145263671875e+02	-6.094962768554687500e+02
2.253084373474121094e+01	-1.038157424926757812e+02	-6.326116333007812500e+02
2.253215217590332031e+01	-1.091687698364257812e+02	-6.131232299804687500e+02
2.253309249877929688e+01	-1.086027374267578125e+02	-6.022103881835937500e+02
2.254207420349121094e+01	-1.084802322387695312e+02	-6.155277709960937500e+02
2.254355049133300781e+01	-1.083371200561523438e+02	-5.965953979492187500e+02
2.254709243774414062e+01	-1.092925109863281250e+02	-6.126427612304687500e+02
2.255076599121093750e+01	-1.094415054321289062e+02	-6.072764282226562500e+02
2.255242347717285156e+01	-1.096812133789062500e+02	-6.112368774414062500e+02
2.255348968505859375e+01	-1.094189071655273438e+02	-6.121671142578125000e+02
2.255511474609375000e+01	-1.095469589233398438e+02	-6.117014770507812500e+02
2.255715370178222656e+01	-1.077229690551757812e+02	-6.002119140625000000e+02
2.255747985839843750e+01	-1.047776794433593750e+02	-6.316604614257812500e+02
2.256455230712890625e+01	-1.083683853149414062e+02	-6.160139160156250000e+02
2.257235717773437500e+01	-1.010899810791015625e+02	-6.339829711914062500e+02
2.257302474975585938e+01	-1.081432189941406250e+02	-6.182763061523437500e+02
2.257570266723632812e+01	-1.002877960205078125e+02	-6.343253173828125000e+02
2.258192825317382812e+01	-1.092500000000000000e+02	-6.053918457031250000e+02
2.260881805419921875e+01	-1.095814514160156250e+02	-6.099465942382812500e+02
2.260944175720214844e+01	-1.082602005004882812e+02	-6.164920654296875000e+02
2.261005783081054688e+01	-1.094135208129882812e+02	-6.077694702148437500e+02
2.261457824707031250e+01	-1.023609924316406250e+02	-6.333566894531250000e+02
2.261472511291503906e+01	-1.033541717529296875e+02	-6.328369140625000000e+02
2.263324356079101562e+01	-1.080131301879882812e+02	-6.187530517578125000e+02
2.263351440429687500e+01	-1.028733444213867188e+02	-6.330820312500000000e+02
2.264047813415527344e+01	-1.043485412597656250e+02	-6.318885498046875000e+02
2.264139366149902344e+01	-1.080536727905273438e+02	-6.010276489257812500e+02
2.265487098693847656e+01	-1.014426345825195312e+02	-6.336884155273437500e+02
2.266044425964355469e+01	-1.088386993408203125e+02	-5.964905395507812500e+02
2.266642570495605469e+01	-1.073359451293945312e+02	-5.999545288085937500e+02
2.266776275634765625e+01	-1.081363601684570312e+02	-6.169622192382812500e+02
2.266966629028320312e+01	-1.093851623535156250e+02	-6.082849731445312500e+02
2.267748832702636719e+01	-1.094847564697265625e+02	-6.104179687500000000e+02
2.268394279479980469e+01	-1.018479156494140625e+02	-6.334588623046875000e+02
2.268947792053222656e+01	-1.078801116943359375e+02	-6.192293701171875000e+02
2.270137214660644531e+01	-1.093682708740234375e+02	-6.087848510742187500e+02
2.270193481445312500e+01	-1.093991928100585938e+02	-6.092013549804687500e+02
2.270232582092285156e+01	-1.069077835083007812e+02	-5.997354125976562500e+02
2.270473098754882812e+01	-9.941613769531250000e+01	-6.344474487304687500e+02
2.271157646179199219e+01	-1.039097824096679688e+02	-6.321536254882812500e+02
2.271821594238281250e+01	-1.086432647705078125e+02	-6.137241210937500000e+02
2.271874618530273438e+01	-1.083586883544921875e+02	-6.018405151367187500e+02
2.272091674804687500e+01	-1.093780441284179688e+02	-6.108875122070312500e+02
2.272159957885742188e+01	-1.064987182617187500e+02	-5.995102539062500000e+02
2.272172546386718750e+01	-1.088532180786132812e+02	-6.035969848632812500e+02
2.272518730163574219e+01	-1.048320007324218750e+02	-6.311948852539062500e+02
2.272826385498046875e+01	-1.086100540161132812e+02	-6.026947021484375000e+02
2.273535919189453125e+01	-1.087673492431640625e+02	-6.132513427734375000e+02
2.273624992370605469e+01	-1.077400970458984375e+02	-6.197048339843750000e+02
2.274104309082031250e+01	-1.079923171997070312e+02	-6.174347534179687500e+02
2.274237060546875000e+01	-1.092486343383789062e+02	-6.113529052734375000e+02
2.274347877502441406e+01	-1.084796600341796875e+02	-6.141910400390625000e+02
2.275720405578613281e+01	-1.088797302246093750e+02	-6.127787475585937500e+02
2.276082038879394531e+01	-9.982839202880859375e+01	-6.342418823242187500e+02
2.276229667663574219e+01	-1.091126785278320312e+02	-6.118217163085937500e+02
2.276274299621582031e+01	-1.089092864990234375e+02	-6.041690063476562500e+02
2.276759147644042969e+01	-1.006071166992187500e+02	-6.339186401367187500e+02
2.276786804199218750e+01	-1.091516571044921875e+02	-6.068479614257812500e+02
2.277230834960937500e+01	-1.089909515380859375e+02	-6.122975463867187500e+02
2.278302192687988281e+01	-1.076000823974609375e+02	-6.201802368164062500e+02
2.278385353088378906e+01	-1.090964736938476562e+02	-6.062345581054687500e+02
2.278745460510253906e+01	-1.083135375976562500e+02	-6.146541748046875000e+02
2.279557991027832031e+01	-1.092703552246093750e+02	-6.095827026367187500e+02
2.279964828491210938e+01	-1.089540710449218750e+02	-6.046967773437500000e+02
2.280518531799316406e+01	-1.081902999877929688e+02	-6.151702270507812500e+02
2.280669593811035156e+01	-1.074629821777343750e+02	-6.206577148437500000e+02
2.281076240539550781e+01	-1.073283462524414062e+02	-6.211369628906250000e+02
2.281156539916992188e+01	-1.090274124145507812e+02	-6.057127075195312500e+02
2.281287002563476562e+01	-1.078490905761718750e+02	-6.179141845703125000e+02
2.281482887268066406e+01	-1.071937179565429688e+02	-6.216162109375000000e+02
2.281889533996582031e+01	-1.070590820312500000e+02	-6.220954589843750000e+02
2.282031822204589844e+01	-1.034507827758789062e+02	-6.323645019531250000e+02
2.282098007202148438e+01	-1.044259033203125000e+02	-6.314099731445312500e+02
2.282292556762695312e+01	-1.077438659667968750e+02	-6.006987915039062500e+02
2.282296180725097656e+01	-1.069244461059570312e+02	-6.225747070312500000e+02
2.282702827453613281e+01	-1.067898178100585938e+02	-6.230539550781250000e+02
2.282823753356933594e+01	-1.089760513305664062e+02	-6.051998291015625000e+02
2.283018493652343750e+01	-1.080888214111328125e+02	-6.156721191406250000e+02
2.283024978637695312e+01	-1.010473327636718750e+02	-6.336145629882812500e+02
2.283745193481445312e+01	-1.066562957763671875e+02	-6.235329589843750000e+02
2.284119796752929688e+01	-1.001492080688476562e+02	-6.340146484375000000e+02
2.285363960266113281e+01	-1.049085693359375000e+02	-6.307216186523437500e+02
2.285370826721191406e+01	-1.090902175903320312e+02	-6.074420776367187500e+02
2.285844039916992188e+01	-1.080078659057617188e+02	-6.161522216796875000e+02
2.286721420288085938e+01	-1.091741256713867188e+02	-6.100646972656250000e+02
2.286999511718750000e+01	-1.077225646972656250e+02	-6.183985595703125000e+02
2.287093925476074219e+01	-1.029541931152343750e+02	-6.325874023437500000e+02
2.288463783264160156e+01	-1.024583129882812500e+02	-6.328209838867187500e+02
2.289292526245117188e+01	-1.080668945312500000e+02	-6.015007934570312500e+02
2.289335250854492188e+01	-1.019638748168945312e+02	-6.330529174804687500e+02
2.289863395690917969e+01	-1.086058807373046875e+02	-6.031352539062500000e+02
2.290137290954589844e+01	-1.090697479248046875e+02	-6.105406494140625000e+02
2.290226364135742188e+01	-1.082910537719726562e+02	-6.138457641601562500e+02
2.290661430358886719e+01	-1.090502929687500000e+02	-6.079853515625000000e+02
2.290686798095703125e+01	-1.040090866088867188e+02	-6.316607055664062500e+02
2.290696334838867188e+01	-1.079004287719726562e+02	-6.166080932617187500e+02
2.291554450988769531e+01	-1.065346145629882812e+02	-6.240092773437500000e+02
2.291581344604492188e+01	-1.076042022705078125e+02	-6.188944702148437500e+02
2.292373657226562500e+01	-1.014488754272460938e+02	-6.332644042968750000e+02
2.292552757263183594e+01	-1.083656616210937500e+02	-6.134185791015625000e+02
2.292603683471679688e+01	-1.089661712646484375e+02	-6.110157470703125000e+02
2.293134117126464844e+01	-1.073556365966796875e+02	-6.004169311523437500e+02
2.294570159912109375e+01	-1.090162429809570312e+02	-6.085346069335937500e+02
2.294781494140625000e+01	-1.083519515991210938e+02	-6.023286743164062500e+02
2.295474243164062500e+01	-1.074779281616210938e+02	-6.193831176757812500e+02
2.295487213134765625e+01	-1.050005645751953125e+02	-6.302429199218750000e+02
2.295838165283203125e+01	-1.084644393920898438e+02	-6.129316406250000000e+02
2.296049880981445312e+01	-1.069388580322265625e+02	-6.001703491210937500e+02
2.296380233764648438e+01	-1.090059738159179688e+02	-6.091239013671875000e+02
2.296523284912109375e+01	-1.088190002441406250e+02	-6.114766235351562500e+02
2.297732734680175781e+01	-1.044979171752929688e+02	-6.309312744140625000e+02
2.298292350769042969e+01	-1.085683517456054688e+02	-6.124424438476562500e+02
2.298527336120605469e+01	-1.065310211181640625e+02	-5.999338378906250000e+02
2.298983383178710938e+01	-1.077427062988281250e+02	-6.170653686523437500e+02
2.299234962463378906e+01	-1.073542709350585938e+02	-6.198624877929687500e+02
2.299363708496093750e+01	-1.064129409790039062e+02	-6.244856567382812500e+02
2.300358200073242188e+01	-1.086765747070312500e+02	-6.119458618164062500e+02
2.300728034973144531e+01	-1.035719909667968750e+02	-6.319038696289062500e+02
2.302532958984375000e+01	-9.938221740722656250e+01	-6.340652465820312500e+02
2.302595901489257812e+01	-1.072310562133789062e+02	-6.203332519531250000e+02
2.304029846191406250e+01	-1.080201950073242188e+02	-6.142279663085937500e+02
2.305529022216796875e+01	-1.070894927978515625e+02	-6.207963867187500000e+02
2.305610466003417969e+01	-1.050925674438476562e+02	-6.297642822265625000e+02
2.305755233764648438e+01	-9.980714416503906250e+01	-6.338642578125000000e+02
2.305802726745605469e+01	-1.006425247192382812e+02	-6.334964599609375000e+02
2.305942153930664062e+01	-1.078951797485351562e+02	-6.148026733398437500e+02
2.306407546997070312e+01	-1.010198135375976562e+02	-6.332929077148437500e+02
2.306533813476562500e+01	-1.088776092529296875e+02	-6.096791992187500000e+02
2.306550025939941406e+01	-1.002212677001953125e+02	-6.336832275390625000e+02
2.306683540344238281e+01	-1.075910873413085938e+02	-6.175411376953125000e+02
2.306956100463867188e+01	-1.085448684692382812e+02	-6.035012817382812500e+02
2.307172966003417969e+01	-1.062912597656250000e+02	-6.249620361328125000e+02
2.308248519897460938e+01	-1.077626953125000000e+02	-6.011704101562500000e+02
2.308635902404785156e+01	-1.077900161743164062e+02	-6.153397216796875000e+02
2.308763313293457031e+01	-1.030886917114257812e+02	-6.321112670898437500e+02
2.308917045593261719e+01	-1.040977401733398438e+02	-6.311655883789062500e+02
2.308949279785156250e+01	-1.069446640014648438e+02	-6.212626342773437500e+02
2.309163856506347656e+01	-1.087679595947265625e+02	-6.065842895507812500e+02
2.309406089782714844e+01	-1.076748733520507812e+02	-6.162858276367187500e+02
2.309987449645996094e+01	-1.087389755249023438e+02	-6.060339355468750000e+02
2.309995079040527344e+01	-1.045841369628906250e+02	-6.304544677734375000e+02
2.310721015930175781e+01	-1.052089996337890625e+02	-6.292833862304687500e+02
2.310827636718750000e+01	-1.087637023925781250e+02	-6.102075805664062500e+02
2.311188888549804688e+01	-1.077023315429687500e+02	-6.158544311523437500e+02
2.311284828186035156e+01	-1.068115921020507812e+02	-6.217412109375000000e+02
2.311551856994628906e+01	-1.086483383178710938e+02	-6.044768676757812500e+02
2.311552047729492188e+01	-1.086732482910156250e+02	-6.049898681640625000e+02
2.311585426330566406e+01	-1.086998062133789062e+02	-6.054997558593750000e+02
2.311770439147949219e+01	-1.087607421875000000e+02	-6.071210937500000000e+02
2.311815261840820312e+01	-1.083539505004882812e+02	-6.027642822265625000e+02
2.312198638916015625e+01	-1.085655822753906250e+02	-6.039515380859375000e+02
2.312651634216308594e+01	-1.066811370849609375e+02	-6.222302246093750000e+02
2.313015747070312500e+01	-1.080059738159179688e+02	-6.136651611328125000e+02
2.313097572326660156e+01	-1.086125717163085938e+02	-6.111451416015625000e+02
2.313143730163574219e+01	-1.086774597167968750e+02	-6.106947021484375000e+02
2.313600158691406250e+01	-1.065441818237304688e+02	-6.227211914062500000e+02
2.313889884948730469e+01	-1.074435653686523438e+02	-6.180468139648437500e+02
2.314068984985351562e+01	-1.080622787475585938e+02	-6.019802246093750000e+02
2.314267921447753906e+01	-1.064063796997070312e+02	-6.232092285156250000e+02
2.314714431762695312e+01	-1.020672760009765625e+02	-6.325997314453125000e+02
2.314982223510742188e+01	-1.061695785522460938e+02	-6.254383544921875000e+02
2.315267562866210938e+01	-1.053281860351562500e+02	-6.288021850585937500e+02
2.316213798522949219e+01	-1.025483703613281250e+02	-6.323014526367187500e+02
2.316323280334472656e+01	-1.087168502807617188e+02	-6.076692504882812500e+02
2.316607856750488281e+01	-1.062575836181640625e+02	-6.237008056640625000e+02
2.317079925537109375e+01	-1.080751419067382812e+02	-6.131383056640625000e+02
2.317903518676757812e+01	-1.016028594970703125e+02	-6.328120117187500000e+02
2.318610000610351562e+01	-1.073311004638671875e+02	-6.185537719726562500e+02
2.319347000122070312e+01	-1.073800964355468750e+02	-6.008775024414062500e+02
2.319631195068359375e+01	-1.036878280639648438e+02	-6.314201660156250000e+02
2.319814109802246094e+01	-1.054473724365234375e+02	-6.283209838867187500e+02
2.320233917236328125e+01	-1.074968185424804688e+02	-6.166658325195312500e+02
2.320244216918945312e+01	-1.061403427124023438e+02	-6.241774291992187500e+02
2.320298767089843750e+01	-1.072322692871093750e+02	-6.190617675781250000e+02
2.320543289184570312e+01	-1.086760330200195312e+02	-6.082169189453125000e+02
2.320974731445312500e+01	-1.081646118164062500e+02	-6.126351928710937500e+02
2.321008110046386719e+01	-1.046830902099609375e+02	-6.299784545898437500e+02
2.322791481018066406e+01	-1.060479049682617188e+02	-6.259147338867187500e+02
2.322842025756835938e+01	-1.069639739990234375e+02	-6.006168212890625000e+02
2.323384475708007812e+01	-1.011595840454101562e+02	-6.329845581054687500e+02
2.323497009277343750e+01	-1.071178588867187500e+02	-6.195465698242187500e+02
2.324066925048828125e+01	-1.086328506469726562e+02	-6.087651977539062500e+02
2.324139785766601562e+01	-1.082566070556640625e+02	-6.121160888671875000e+02
2.324360656738281250e+01	-1.055665588378906250e+02	-6.278397827148437500e+02
2.324450302124023438e+01	-1.041739120483398438e+02	-6.306759643554687500e+02
2.324614906311035156e+01	-1.060135040283203125e+02	-6.246520385742187500e+02
2.324894905090332031e+01	-1.065633316040039062e+02	-6.003574218750000000e+02
2.327145576477050781e+01	-1.070040817260742188e+02	-6.200143432617187500e+02
2.327298355102539062e+01	-1.083624725341796875e+02	-6.115430908203125000e+02
2.327309799194335938e+01	-1.083240966796875000e+02	-6.031814575195312500e+02
2.328417968750000000e+01	-1.032424926757812500e+02	-6.316376953125000000e+02
2.328609275817871094e+01	-1.073355407714843750e+02	-6.171477661132812500e+02
2.328697013854980469e+01	-1.058981933593750000e+02	-6.251121826171875000e+02
2.328740501403808594e+01	-1.059265289306640625e+02	-6.263927001953125000e+02
2.328867721557617188e+01	-1.047847137451171875e+02	-6.294873657226562500e+02
2.328907203674316406e+01	-1.056857452392578125e+02	-6.273585815429687500e+02
2.329022026062011719e+01	-1.058060836791992188e+02	-6.268757324218750000e+02
2.329056739807128906e+01	-1.085711822509765625e+02	-6.093170166015625000e+02
2.329835510253906250e+01	-1.068831481933593750e+02	-6.204684448242187500e+02
2.330494117736816406e+01	-1.007216796875000000e+02	-6.331262207031250000e+02
2.332671356201171875e+01	-1.080617523193359375e+02	-6.024182739257812500e+02
2.332785415649414062e+01	-1.002875137329101562e+02	-6.333128662109375000e+02
2.333380699157714844e+01	-9.986027526855468750e+01	-6.334950561523437500e+02
2.333566284179687500e+01	-1.077700881958007812e+02	-6.016389160156250000e+02
2.333923149108886719e+01	-9.938521575927734375e+01	-6.336810302734375000e+02
2.333976936340332031e+01	-1.057745437622070312e+02	-6.255747680664062500e+02
2.334056663513183594e+01	-1.048982162475585938e+02	-6.289937133789062500e+02
2.334668540954589844e+01	-1.084594802856445312e+02	-6.098615112304687500e+02
2.334927749633789062e+01	-1.076056900024414062e+02	-6.144458007812500000e+02
2.335654449462890625e+01	-1.067252578735351562e+02	-6.209255371093750000e+02
2.336479759216308594e+01	-1.027782516479492188e+02	-6.318092041015625000e+02
2.336816596984863281e+01	-1.075059967041015625e+02	-6.149921875000000000e+02
2.336914634704589844e+01	-1.021050033569335938e+02	-6.322280273437500000e+02
2.337013244628906250e+01	-1.071702728271484375e+02	-6.176575927734375000e+02
2.337375450134277344e+01	-1.076681289672851562e+02	-6.139057006835937500e+02
2.337633705139160156e+01	-1.083017501831054688e+02	-6.109564819335937500e+02
2.337924194335937500e+01	-1.082929916381835938e+02	-6.035949707031250000e+02
2.338092994689941406e+01	-1.042658996582031250e+02	-6.301810302734375000e+02
2.338241386413574219e+01	-1.083633270263671875e+02	-6.104014282226562500e+02
2.338430404663085938e+01	-1.037696456909179688e+02	-6.309075317382812500e+02
2.338687896728515625e+01	-1.050200958251953125e+02	-6.285036621093750000e+02
2.339172172546386719e+01	-1.074087829589843750e+02	-6.155551757812500000e+02
2.340359687805175781e+01	-1.073148422241210938e+02	-6.161619262695312500e+02
2.340551757812500000e+01	-1.084228134155273438e+02	-6.063344116210937500e+02
2.340565490722656250e+01	-1.084121246337890625e+02	-6.058173828125000000e+02
2.340791702270507812e+01	-1.056274185180664062e+02	-6.260356445312500000e+02
2.341403770446777344e+01	-1.083930892944335938e+02	-6.052913208007812500e+02
2.341444969177246094e+01	-1.077131271362304688e+02	-6.133794555664062500e+02
2.341469764709472656e+01	-1.084243164062500000e+02	-6.068445434570312500e+02
2.341893005371093750e+01	-1.083677673339843750e+02	-6.047929077148437500e+02
2.341932106018066406e+01	-1.065693893432617188e+02	-6.213806762695312500e+02
2.342587280273437500e+01	-1.051381225585937500e+02	-6.280097656250000000e+02
2.342849540710449219e+01	-1.069567184448242188e+02	-6.187502441406250000e+02
2.343325233459472656e+01	-1.083360595703125000e+02	-6.043209838867187500e+02
2.343954467773437500e+01	-1.083960037231445312e+02	-6.073642578125000000e+02
2.344224739074707031e+01	-1.064468460083007812e+02	-6.218825073242187500e+02
2.345001602172851562e+01	-1.016746368408203125e+02	-6.323729248046875000e+02
2.345203399658203125e+01	-1.063119583129882812e+02	-6.223910522460937500e+02
2.345226669311523438e+01	-1.073966064453125000e+02	-6.013271484375000000e+02
2.345244598388671875e+01	-1.077877883911132812e+02	-6.128435058593750000e+02
2.345715522766113281e+01	-1.012577819824218750e+02	-6.326228027343750000e+02
2.345722961425781250e+01	-1.033682785034179688e+02	-6.311680297851562500e+02
2.345741271972656250e+01	-1.068558883666992188e+02	-6.192382812500000000e+02
2.345758056640625000e+01	-1.060208358764648438e+02	-6.233889160156250000e+02
2.345768547058105469e+01	-1.069966049194335938e+02	-6.181994628906250000e+02
2.345771217346191406e+01	-1.061780929565429688e+02	-6.228906860351562500e+02
2.345882987976074219e+01	-1.054892959594726562e+02	-6.265187377929687500e+02
2.346588516235351562e+01	-1.052567901611328125e+02	-6.275055541992187500e+02
2.346851921081542969e+01	-1.058892211914062500e+02	-6.238704223632812500e+02
2.346980094909667969e+01	-1.053630981445312500e+02	-6.270078125000000000e+02
2.347200202941894531e+01	-1.082655105590820312e+02	-6.039465332031250000e+02
2.347657394409179688e+01	-1.043715133666992188e+02	-6.296897583007812500e+02
2.347992706298828125e+01	-1.083550186157226562e+02	-6.078969726562500000e+02
2.348510932922363281e+01	-1.055638504028320312e+02	-6.252592163085937500e+02
2.349016761779785156e+01	-1.069863815307617188e+02	-6.010507812500000000e+02
2.349038314819335938e+01	-1.023304824829101562e+02	-6.318906860351562500e+02
2.349276161193847656e+01	-1.080539550781250000e+02	-6.028583374023437500e+02
2.349598503112792969e+01	-1.057447586059570312e+02	-6.243619384765625000e+02
2.349870300292968750e+01	-1.067411041259765625e+02	-6.197088012695312500e+02
2.349913215637207031e+01	-1.078633575439453125e+02	-6.123314208984375000e+02
2.350314140319824219e+01	-1.056223678588867188e+02	-6.248422241210937500e+02
2.351262283325195312e+01	-1.065956420898437500e+02	-6.007810668945312500e+02
2.351343154907226562e+01	-1.083129806518554688e+02	-6.084406127929687500e+02
2.351642417907714844e+01	-1.071081542968750000e+02	-6.167178955078125000e+02
2.352489471435546875e+01	-1.066362838745117188e+02	-6.201730346679687500e+02
2.352676391601562500e+01	-1.008451232910156250e+02	-6.327701416015625000e+02
2.352788734436035156e+01	-1.029428176879882812e+02	-6.313721313476562500e+02
2.353043556213378906e+01	-1.077747955322265625e+02	-6.020869750976562500e+02
2.353185462951660156e+01	-1.065552444458007812e+02	-6.205938110351562500e+02
2.353505325317382812e+01	-1.038587493896484375e+02	-6.304182739257812500e+02
2.353937149047851562e+01	-1.044730300903320312e+02	-6.291920166015625000e+02
2.354103469848632812e+01	-1.079348983764648438e+02	-6.118156127929687500e+02
2.355722427368164062e+01	-1.082605895996093750e+02	-6.089774169921875000e+02
2.356536674499511719e+01	-1.053706359863281250e+02	-6.256409301757812500e+02
2.358435821533203125e+01	-1.003756942749023438e+02	-6.329472656250000000e+02
2.359290313720703125e+01	-1.045932235717773438e+02	-6.286889038085937500e+02
2.359993743896484375e+01	-1.081800613403320312e+02	-6.095144653320312500e+02
2.360241127014160156e+01	-1.080270996093750000e+02	-6.032983398437500000e+02
2.360478210449218750e+01	-1.069348831176757812e+02	-6.172390136718750000e+02
2.361442756652832031e+01	-1.079733352661132812e+02	-6.112741699218750000e+02
2.361512947082519531e+01	-9.993894958496093750e+01	-6.331157836914062500e+02
2.362014961242675781e+01	-1.052012252807617188e+02	-6.261296997070312500e+02
2.362257385253906250e+01	-1.047177963256835938e+02	-6.281905517578125000e+02
2.363506126403808594e+01	-9.948779296875000000e+01	-6.332911376953125000e+02
2.363807487487792969e+01	-1.018925704956054688e+02	-6.319565429687500000e+02
2.364142417907714844e+01	-1.025248794555664062e+02	-6.314902954101562500e+02
2.364726448059082031e+01	-1.080848846435546875e+02	-6.100726318359375000e+02
2.365003204345703125e+01	-1.067063293457031250e+02	-6.185333251953125000e+02
2.365420913696289062e+01	-1.030622100830078125e+02	-6.309712524414062500e+02
2.365458106994628906e+01	-1.033780517578125000e+02	-6.306345214843750000e+02
2.365488052368164062e+01	-1.039602355957031250e+02	-6.299142456054687500e+02
2.365561866760253906e+01	-1.048358840942382812e+02	-6.276896972656250000e+02
2.365775489807128906e+01	-1.074066848754882812e+02	-6.017775268554687500e+02
2.366539573669433594e+01	-1.050426330566406250e+02	-6.266406860351562500e+02
2.366831779479980469e+01	-1.072460708618164062e+02	-6.146562500000000000e+02
2.366926765441894531e+01	-1.012990570068359375e+02	-6.323063964843750000e+02
2.367119598388671875e+01	-1.049280242919921875e+02	-6.271614379882812500e+02
2.367238998413085938e+01	-1.073233947753906250e+02	-6.141198730468750000e+02
2.368627929687500000e+01	-1.066016769409179688e+02	-6.189459228515625000e+02
2.368846130371093750e+01	-1.062911453247070312e+02	-6.209612426757812500e+02
2.369084548950195312e+01	-1.071453857421875000e+02	-6.152141113281250000e+02
2.369128990173339844e+01	-1.073859786987304688e+02	-6.135996704101562500e+02
2.369182205200195312e+01	-1.067659225463867188e+02	-6.177382812500000000e+02
2.369611358642578125e+01	-1.080134658813476562e+02	-6.037203369140625000e+02
2.369979286193847656e+01	-1.080905761718750000e+02	-6.055825805664062500e+02
2.369980049133300781e+01	-1.051833572387695312e+02	-6.251491699218750000e+02
2.369981002807617188e+01	-1.079608383178710938e+02	-6.106750488281250000e+02
2.370221710205078125e+01	-1.080947265625000000e+02	-6.060754394531250000e+02
2.370438003540039062e+01	-1.080787582397460938e+02	-6.050841674804687500e+02
2.370863533020019531e+01	-1.080536193847656250e+02	-6.046005859375000000e+02
2.370976448059082031e+01	-1.080932235717773438e+02	-6.065722045898437500e+02
2.371236419677734375e+01	-1.061701965332031250e+02	-6.215270385742187500e+02
2.371321296691894531e+01	-1.077817153930664062e+02	-6.025350952148437500e+02
2.371587753295898438e+01	-1.053177185058593750e+02	-6.245700073242187500e+02
2.371660041809082031e+01	-1.070030899047851562e+02	-6.014924316406250000e+02
2.371735191345214844e+01	-1.056173553466796875e+02	-6.235576171875000000e+02
2.371994209289550781e+01	-1.054691543579101562e+02	-6.240539550781250000e+02
2.372162628173828125e+01	-1.074380569458007812e+02	-6.130931396484375000e+02
2.372221946716308594e+01	-1.080203170776367188e+02	-6.041575927734375000e+02
2.372345161437988281e+01	-1.080737991333007812e+02	-6.070792846679687500e+02
2.372367858886718750e+01	-1.070308532714843750e+02	-6.157737426757812500e+02
2.372653579711914062e+01	-1.060482254028320312e+02	-6.220537719726562500e+02
2.372800064086914062e+01	-1.040387344360351562e+02	-6.293810424804687500e+02
2.373003387451171875e+01	-1.064799652099609375e+02	-6.194112548828125000e+02
2.373006248474121094e+01	-1.059163742065429688e+02	-6.225605468750000000e+02
2.373410224914550781e+01	-1.057770004272460938e+02	-6.230652465820312500e+02
2.374490547180175781e+01	-1.009422912597656250e+02	-6.324272460937500000e+02
2.374998664855957031e+01	-1.080470275878906250e+02	-6.076012573242187500e+02
2.375749206542968750e+01	-1.075108947753906250e+02	-6.125693969726562500e+02
2.375778198242187500e+01	-1.049433288574218750e+02	-6.256909790039062500e+02
2.376187896728515625e+01	-1.066197052001953125e+02	-6.012131347656250000e+02
2.377168273925781250e+01	-1.063627166748046875e+02	-6.198941650390625000e+02
2.377344322204589844e+01	-1.062792358398437500e+02	-6.203994140625000000e+02
2.377531051635742188e+01	-1.026864852905273438e+02	-6.310656127929687500e+02
2.377619552612304688e+01	-1.068868713378906250e+02	-6.163197021484375000e+02
2.378125953674316406e+01	-1.035356216430664062e+02	-6.301087646484375000e+02
2.378204536437988281e+01	-1.080101394653320312e+02	-6.081286010742187500e+02
2.378439140319824219e+01	-1.041460647583007812e+02	-6.288751220703125000e+02
2.378912544250488281e+01	-1.020987319946289062e+02	-6.315759277343750000e+02
2.378979873657226562e+01	-1.014868927001953125e+02	-6.320191650390625000e+02
2.380369186401367188e+01	-1.047382965087890625e+02	-6.262324218750000000e+02
2.380593299865722656e+01	-1.042798690795898438e+02	-6.283655395507812500e+02
2.380669784545898438e+01	-1.065696258544921875e+02	-6.181845703125000000e+02
2.381088638305664062e+01	-1.075733642578125000e+02	-6.120584106445312500e+02
2.382425689697265625e+01	-1.044094390869140625e+02	-6.278652954101562500e+02
2.382460784912109375e+01	-1.079660263061523438e+02	-6.086576538085937500e+02
2.382823371887207031e+01	-1.045173034667968750e+02	-6.273620605468750000e+02
2.383278846740722656e+01	-1.004882278442382812e+02	-6.325780029296875000e+02
2.383316802978515625e+01	-1.077517318725585938e+02	-6.029942626953125000e+02
2.384912872314453125e+01	-1.045449676513671875e+02	-6.267854614257812500e+02
2.385063362121582031e+01	-1.036348495483398438e+02	-6.296128540039062500e+02
2.385681343078613281e+01	-1.074208145141601562e+02	-6.022279663085937500e+02
2.385923004150390625e+01	-1.028941421508789062e+02	-6.306602172851562500e+02
2.386426162719726562e+01	-1.067134704589843750e+02	-6.168348388671875000e+02
2.386789512634277344e+01	-1.079005584716796875e+02	-6.091948242187500000e+02
2.386955261230468750e+01	-1.076164321899414062e+02	-6.115620727539062500e+02
2.388701820373535156e+01	-1.000449752807617188e+02	-6.327375488281250000e+02
2.390774536132812500e+01	-1.063841552734375000e+02	-6.186245117187500000e+02
2.391823768615722656e+01	-1.078198013305664062e+02	-6.097337036132812500e+02
2.391905593872070312e+01	-1.022764511108398438e+02	-6.311655883789062500e+02
2.392901420593261719e+01	-1.070153579711914062e+02	-6.019407348632812500e+02
2.392953491210937500e+01	-1.077443161010742188e+02	-6.034497070312500000e+02
2.393089103698730469e+01	-9.959037017822265625e+01	-6.329013061523437500e+02
2.393443489074707031e+01	-1.030947189331054688e+02	-6.302551269531250000e+02
2.394021797180175781e+01	-1.046954574584960938e+02	-6.252752685546875000e+02
2.394085121154785156e+01	-1.010794296264648438e+02	-6.320872802734375000e+02
2.394180679321289062e+01	-1.076413116455078125e+02	-6.110713500976562500e+02
2.394482421875000000e+01	-1.048841781616210938e+02	-6.247515869140625000e+02
2.394823837280273438e+01	-1.016749877929687500e+02	-6.316608886718750000e+02
2.394894790649414062e+01	-1.065443954467773438e+02	-6.173431396484375000e+02
2.396172142028808594e+01	-1.036550369262695312e+02	-6.290584716796875000e+02
2.396341323852539062e+01	-1.077248992919921875e+02	-6.102440185546875000e+02
2.396470832824707031e+01	-1.050544815063476562e+02	-6.242365112304687500e+02
2.396475028991699219e+01	-1.042127838134765625e+02	-6.271307373046875000e+02
2.396498107910156250e+01	-1.062452545166015625e+02	-6.190852050781250000e+02
2.396624565124511719e+01	-1.069898834228515625e+02	-6.143477783203125000e+02
2.397066116333007812e+01	-1.070632781982421875e+02	-6.138178710937500000e+02
2.397233963012695312e+01	-1.044753875732421875e+02	-6.257979125976562500e+02
2.397586059570312500e+01	-1.038235855102539062e+02	-6.285238647460937500e+02
2.398056030273437500e+01	-1.077337493896484375e+02	-6.039100952148437500e+02
2.398132705688476562e+01	-1.041048583984375000e+02	-6.275520019531250000e+02
2.398295593261718750e+01	-1.039691543579101562e+02	-6.280263671875000000e+02
2.398351287841796875e+01	-1.052168502807617188e+02	-6.237271118164062500e+02
2.398598670959472656e+01	-1.066293716430664062e+02	-6.016600341796875000e+02
2.398825645446777344e+01	-1.068949279785156250e+02	-6.148859252929687500e+02
2.399182891845703125e+01	-1.074063110351562500e+02	-6.026978149414062500e+02
2.399196434020996094e+01	-1.077606201171875000e+02	-6.058140258789062500e+02
2.399246215820312500e+01	-1.077623596191406250e+02	-6.063088378906250000e+02
2.399248123168945312e+01	-1.032294387817382812e+02	-6.298040771484375000e+02
2.399297142028808594e+01	-1.077572555541992188e+02	-6.053316040039062500e+02
2.399316978454589844e+01	-1.077380523681640625e+02	-6.043755493164062500e+02
2.399320220947265625e+01	-1.071176147460937500e+02	-6.132960815429687500e+02
2.399355506896972656e+01	-1.077560806274414062e+02	-6.068092651367187500e+02
2.399588584899902344e+01	-1.077518310546875000e+02	-6.048511352539062500e+02
2.399956703186035156e+01	-1.042708435058593750e+02	-6.263092651367187500e+02
2.400147438049316406e+01	-1.053808288574218750e+02	-6.232343750000000000e+02
2.400430679321289062e+01	-1.058832778930664062e+02	-6.212077636718750000e+02
2.400840187072753906e+01	-1.077406387329101562e+02	-6.073215332031250000e+02
2.401380348205566406e+01	-1.061242065429687500e+02	-6.195560913085937500e+02
2.401618766784667969e+01	-1.056671142578125000e+02	-6.222316284179687500e+02
2.401840209960937500e+01	-1.057918548583984375e+02	-6.217218017578125000e+02
2.402017402648925781e+01	-1.055348587036132812e+02	-6.227411499023437500e+02
2.402227210998535156e+01	-1.067867355346679688e+02	-6.154320068359375000e+02
2.402477264404296875e+01	-1.059406585693359375e+02	-6.206685180664062500e+02
2.402549552917480469e+01	-1.024615936279296875e+02	-6.307547607421875000e+02
2.402736473083496094e+01	-1.076183242797851562e+02	-6.106596679687500000e+02
2.402847671508789062e+01	-1.071659927368164062e+02	-6.127990722656250000e+02
2.403269958496093750e+01	-1.033396530151367188e+02	-6.293944091796875000e+02
2.403608894348144531e+01	-1.077117767333984375e+02	-6.078434448242187500e+02
2.403737449645996094e+01	-1.063778610229492188e+02	-6.178134155273437500e+02
2.406377601623535156e+01	-1.040350875854492188e+02	-6.267654418945312500e+02
2.406448173522949219e+01	-1.006271209716796875e+02	-6.322069702148437500e+02
2.407061195373535156e+01	-1.066517333984375000e+02	-6.159531860351562500e+02
2.407239723205566406e+01	-1.072246627807617188e+02	-6.123002929687500000e+02
2.407814407348632812e+01	-1.076699295043945312e+02	-6.083691406250000000e+02
2.407840538024902344e+01	-1.059695434570312500e+02	-6.200911865234375000e+02
2.409093475341796875e+01	-1.018564224243164062e+02	-6.312634887695312500e+02
2.409960174560546875e+01	-1.070169677734375000e+02	-6.024044189453125000e+02
2.410284805297851562e+01	-1.073945770263671875e+02	-6.031692504882812500e+02
2.410620689392089844e+01	-1.012657241821289062e+02	-6.317436523437500000e+02
2.412429237365722656e+01	-1.038288497924804688e+02	-6.272071533203125000e+02
2.412760353088378906e+01	-1.026486816406250000e+02	-6.303322143554687500e+02
2.413047599792480469e+01	-1.076090698242187500e+02	-6.088972778320312500e+02
2.413081169128417969e+01	-1.072731552124023438e+02	-6.118056030273437500e+02
2.413454055786132812e+01	-1.061982116699218750e+02	-6.182769165039062500e+02
2.413660621643066406e+01	-1.064993362426757812e+02	-6.164656372070312500e+02
2.413999938964843750e+01	-1.001821441650390625e+02	-6.323572998046875000e+02
2.415628433227539062e+01	-1.036787033081054688e+02	-6.276727905273437500e+02
2.416291427612304688e+01	-1.035280532836914062e+02	-6.281411132812500000e+02
2.416464042663574219e+01	-1.028184890747070312e+02	-6.299038085937500000e+02
2.416624259948730469e+01	-1.033739776611328125e+02	-6.286176757812500000e+02
2.417619514465332031e+01	-1.073830947875976562e+02	-6.036440429687500000e+02
2.418875885009765625e+01	-1.075373992919921875e+02	-6.094235839843750000e+02
2.418928909301757812e+01	-1.042331695556640625e+02	-6.253967895507812500e+02
2.419030952453613281e+01	-1.073066101074218750e+02	-6.113223876953125000e+02
2.419250488281250000e+01	-1.029660034179687500e+02	-6.294847412109375000e+02
2.419544410705566406e+01	-1.044497146606445312e+02	-6.248967285156250000e+02
2.419598007202148438e+01	-1.031678466796875000e+02	-6.290511474609375000e+02
2.419925880432128906e+01	-1.066364669799804688e+02	-6.021109619140625000e+02
2.419987678527832031e+01	-1.074063796997070312e+02	-6.065607910156250000e+02
2.420109176635742188e+01	-1.073771591186523438e+02	-6.041237182617187500e+02
2.420226669311523438e+01	-1.040132293701171875e+02	-6.259028930664062500e+02
2.420474815368652344e+01	-1.074056167602539062e+02	-6.060615844726562500e+02
2.420651817321777344e+01	-1.060447006225585938e+02	-6.187315063476562500e+02
2.420754623413085938e+01	-1.073975677490234375e+02	-6.070670166015625000e+02
2.420928382873535156e+01	-1.020429534912109375e+02	-6.308465576171875000e+02
2.420998954772949219e+01	-1.073995513916015625e+02	-6.055662841796875000e+02
2.421156692504882812e+01	-9.972084808349609375e+01	-6.325107421875000000e+02
2.421385383605957031e+01	-1.063366699218750000e+02	-6.169701538085937500e+02
2.421621704101562500e+01	-1.073907852172851562e+02	-6.050830688476562500e+02
2.421974754333496094e+01	-1.070023803710937500e+02	-6.028848266601562500e+02
2.422079277038574219e+01	-1.073863067626953125e+02	-6.046010742187500000e+02
2.422159576416015625e+01	-1.046482772827148438e+02	-6.243960571289062500e+02
2.422745513916015625e+01	-1.037889022827148438e+02	-6.263749389648437500e+02
2.423021125793457031e+01	-1.074572372436523438e+02	-6.099264526367187500e+02
2.423534774780273438e+01	-1.073769531250000000e+02	-6.075801391601562500e+02
2.425400543212890625e+01	-1.067256851196289062e+02	-6.140513305664062500e+02
2.425539016723632812e+01	-1.073277511596679688e+02	-6.108652954101562500e+02
2.425579833984375000e+01	-1.059157333374023438e+02	-6.191865234375000000e+02
2.425635147094726562e+01	-1.048283462524414062e+02	-6.238954467773437500e+02
2.425887107849121094e+01	-1.067913131713867188e+02	-6.135355224609375000e+02
2.426420783996582031e+01	-1.014499816894531250e+02	-6.313704833984375000e+02
2.427178764343261719e+01	-1.068397445678710938e+02	-6.130234375000000000e+02
2.427180290222167969e+01	-1.073383483886718750e+02	-6.080949707031250000e+02
2.427296066284179688e+01	-1.073771514892578125e+02	-6.104001464843750000e+02
2.427296066284179688e+01	-1.066501693725585938e+02	-6.145749511718750000e+02
2.427557945251464844e+01	-1.007984695434570312e+02	-6.318391723632812500e+02
2.427927017211914062e+01	-1.035901794433593750e+02	-6.268367919921875000e+02
2.428367424011230469e+01	-1.050001144409179688e+02	-6.234022216796875000e+02
2.429647445678710938e+01	-1.061726913452148438e+02	-6.174486083984375000e+02
2.431187820434570312e+01	-1.065401000976562500e+02	-6.151013183593750000e+02
2.431318664550781250e+01	-1.068823928833007812e+02	-6.125298461914062500e+02
2.431481361389160156e+01	-1.022380599975585938e+02	-6.304343261718750000e+02
2.432166862487792969e+01	-1.070001678466796875e+02	-6.033635864257812500e+02
2.432172775268554688e+01	-1.057843704223632812e+02	-6.196520996093750000e+02
2.432339286804199219e+01	-1.052999343872070312e+02	-6.224309692382812500e+02
2.432356262207031250e+01	-1.054262771606445312e+02	-6.219229125976562500e+02
2.432365226745605469e+01	-1.051719436645507812e+02	-6.229237060546875000e+02
2.432495880126953125e+01	-1.055246505737304688e+02	-6.214181518554687500e+02
2.432576370239257812e+01	-1.066228790283203125e+02	-6.025944824218750000e+02
2.432774353027343750e+01	-1.034130096435546875e+02	-6.273046875000000000e+02
2.432782936096191406e+01	-1.055905075073242188e+02	-6.209247436523437500e+02
2.433817672729492188e+01	-1.070232009887695312e+02	-6.068161621093750000e+02
2.434135437011718750e+01	-1.072916717529296875e+02	-6.086072998046875000e+02
2.434225654602050781e+01	-1.070251922607421875e+02	-6.063132934570312500e+02
2.434419631958007812e+01	-1.056418609619140625e+02	-6.204400634765625000e+02
2.435035133361816406e+01	-1.069857101440429688e+02	-6.038533935546875000e+02
2.435240554809570312e+01	-1.070153884887695312e+02	-6.058152465820312500e+02
2.435873985290527344e+01	-1.032618942260742188e+02	-6.277689208984375000e+02
2.436033248901367188e+01	-1.064111251831054688e+02	-6.156145629882812500e+02
2.436260986328125000e+01	-1.070039978027343750e+02	-6.053187866210937500e+02
2.436320114135742188e+01	-1.070123214721679688e+02	-6.073208618164062500e+02
2.437150955200195312e+01	-1.069254760742187500e+02	-6.120430908203125000e+02
2.437319374084472656e+01	-1.069914398193359375e+02	-6.048294677734375000e+02
2.437369918823242188e+01	-1.030971603393554688e+02	-6.282369384765625000e+02
2.437393951416015625e+01	-1.069868927001953125e+02	-6.043391113281250000e+02
2.437473487854003906e+01	-1.024021224975585938e+02	-6.300048217773437500e+02
2.438020324707031250e+01	-1.060061721801757812e+02	-6.179227905273437500e+02
2.438086128234863281e+01	-1.003461303710937500e+02	-6.319746704101562500e+02
2.439247703552246094e+01	-1.016237030029296875e+02	-6.309664916992187500e+02
2.439452362060546875e+01	-1.029258346557617188e+02	-6.286958007812500000e+02
2.439476966857910156e+01	-1.069819717407226562e+02	-6.078281250000000000e+02
2.440108680725097656e+01	-1.056481399536132812e+02	-6.200335693359375000e+02
2.440729713439941406e+01	-1.025609893798828125e+02	-6.295552368164062500e+02
2.441383361816406250e+01	-1.072278518676757812e+02	-6.091198730468750000e+02
2.441503906250000000e+01	-1.062698364257812500e+02	-6.161228027343750000e+02
2.441620635986328125e+01	-1.027463455200195312e+02	-6.291255493164062500e+02
2.443483924865722656e+01	-1.069586868286132812e+02	-6.115562744140625000e+02
2.444147872924804688e+01	-1.063967742919921875e+02	-6.137604370117187500e+02
2.444507980346679688e+01	-1.064560241699218750e+02	-6.132549438476562500e+02
2.445078086853027344e+01	-1.058529129028320312e+02	-6.183844604492187500e+02
2.445226860046386719e+01	-1.066092987060546875e+02	-6.030780639648437500e+02
2.445631217956542969e+01	-1.064996337890625000e+02	-6.127499389648437500e+02
2.446011734008789062e+01	-1.063207550048828125e+02	-6.142721557617187500e+02
2.446146774291992188e+01	-1.069377288818359375e+02	-6.083322753906250000e+02
2.446575736999511719e+01	-1.009953460693359375e+02	-6.314669799804687500e+02
2.446668434143066406e+01	-1.037983474731445312e+02	-6.255344238281250000e+02
2.446770477294921875e+01	-9.989650726318359375e+01	-6.321188354492187500e+02
2.446812820434570312e+01	-1.040281372070312500e+02	-6.250423583984375000e+02
2.447037887573242188e+01	-1.066609802246093750e+02	-6.065713500976562500e+02
2.447050666809082031e+01	-1.071548690795898438e+02	-6.096177978515625000e+02
2.447680473327636719e+01	-1.035757064819335938e+02	-6.260040283203125000e+02
2.448130607604980469e+01	-1.061180267333984375e+02	-6.166233520507812500e+02
2.448508071899414062e+01	-1.066453552246093750e+02	-6.060718383789062500e+02
2.448846626281738281e+01	-1.033604049682617188e+02	-6.264676513671875000e+02
2.448886680603027344e+01	-1.069826278686523438e+02	-6.110736083984375000e+02
2.448903846740722656e+01	-1.066520614624023438e+02	-6.070705566406250000e+02
2.449380302429199219e+01	-1.042444152832031250e+02	-6.245535278320312500e+02
2.449683570861816406e+01	-1.066010818481445312e+02	-6.035745239257812500e+02
2.449978256225585938e+01	-1.066297378540039062e+02	-6.055722656250000000e+02
2.450141334533691406e+01	-1.062236633300781250e+02	-6.147779541015625000e+02
2.451448631286621094e+01	-1.066141128540039062e+02	-6.050726928710937500e+02
2.451487350463867188e+01	-1.065405883789062500e+02	-6.122586059570312500e+02
2.451554679870605469e+01	-1.066373672485351562e+02	-6.075696411132812500e+02
2.451747512817382812e+01	-1.057031936645507812e+02	-6.188489990234375000e+02
2.451898193359375000e+01	-1.018126525878906250e+02	-6.305475463867187500e+02
2.451987266540527344e+01	-1.070843276977539062e+02	-6.101108398437500000e+02
2.452349853515625000e+01	-1.065940399169921875e+02	-6.040737304687500000e+02
2.452918815612792969e+01	-1.065984878540039062e+02	-6.045731811523437500e+02
2.453075981140136719e+01	-1.044484939575195312e+02	-6.240664672851562500e+02
2.453347778320312500e+01	-1.070256652832031250e+02	-6.105952758789062500e+02
2.453785514831542969e+01	-1.031818466186523438e+02	-6.269404296875000000e+02
2.454179763793945312e+01	-1.068761596679687500e+02	-6.088348999023437500e+02
2.455361747741699219e+01	-1.059632797241210938e+02	-6.171041870117187500e+02
2.455392646789550781e+01	-1.061056976318359375e+02	-6.152781372070312500e+02
2.456427574157714844e+01	-1.046300354003906250e+02	-6.235773925781250000e+02
2.456957054138183594e+01	-1.065997695922851562e+02	-6.080635986328125000e+02
2.457595252990722656e+01	-1.030200424194335938e+02	-6.274078979492187500e+02
2.457905387878417969e+01	-1.065699768066406250e+02	-6.117742919921875000e+02
2.458157539367675781e+01	-1.055704650878906250e+02	-6.193131713867187500e+02
2.459833145141601562e+01	-1.011837310791015625e+02	-6.310592041015625000e+02
2.460395622253417969e+01	-1.005383529663085938e+02	-6.315934448242187500e+02
2.460648536682128906e+01	-1.048055953979492188e+02	-6.230906372070312500e+02
2.460655212402343750e+01	-1.019969177246093750e+02	-6.301121215820312500e+02
2.460693740844726562e+01	-1.028586883544921875e+02	-6.278716430664062500e+02
2.461360359191894531e+01	-1.068084945678710938e+02	-6.093303833007812500e+02
2.461741638183593750e+01	-1.059685821533203125e+02	-6.157695312500000000e+02
2.461938667297363281e+01	-1.060785217285156250e+02	-6.134879150390625000e+02
2.462164878845214844e+01	-1.061325759887695312e+02	-6.129908447265625000e+02
2.462398719787597656e+01	-1.060174026489257812e+02	-6.139835205078125000e+02
2.463260078430175781e+01	-1.058022689819335938e+02	-6.175809326171875000e+02
2.463373947143554688e+01	-1.026842117309570312e+02	-6.283190917968750000e+02
2.463636398315429688e+01	-1.049563293457031250e+02	-6.226101074218750000e+02
2.463659667968750000e+01	-1.065980834960937500e+02	-6.112877807617187500e+02
2.463937187194824219e+01	-1.054506454467773438e+02	-6.197490844726562500e+02
2.463994789123535156e+01	-1.052676239013671875e+02	-6.211407470703125000e+02
2.464012527465820312e+01	-1.021599960327148438e+02	-6.296599731445312500e+02
2.464124107360839844e+01	-1.050723190307617188e+02	-6.221250000000000000e+02
2.464443206787109375e+01	-1.053241806030273438e+02	-6.206529541015625000e+02
2.464551353454589844e+01	-1.051908493041992188e+02	-6.216322631835937500e+02
2.464815139770507812e+01	-1.061737136840820312e+02	-6.124945678710937500e+02
2.465833663940429688e+01	-1.053687515258789062e+02	-6.201928710937500000e+02
2.465966033935546875e+01	-1.065321655273437500e+02	-6.085507202148437500e+02
2.466393280029296875e+01	-1.025063781738281250e+02	-6.287621459960937500e+02
2.466696929931640625e+01	-1.023326873779296875e+02	-6.292088012695312500e+02
2.467318153381347656e+01	-1.067341613769531250e+02	-6.098245239257812500e+02
2.467330551147460938e+01	-1.059102859497070312e+02	-6.144694213867187500e+02
2.468524551391601562e+01	-1.066286697387695312e+02	-6.107996215820312500e+02
2.469054985046386719e+01	-1.058136978149414062e+02	-6.162582397460937500e+02
2.470878601074218750e+01	-1.056426544189453125e+02	-6.180487670898437500e+02
2.471763992309570312e+01	-1.061919479370117188e+02	-6.119997558593750000e+02
2.472253608703613281e+01	-1.066796951293945312e+02	-6.103140869140625000e+02
2.472262382507324219e+01	-1.058031616210937500e+02	-6.149553222656250000e+02
2.472384262084960938e+01	-1.000721740722656250e+02	-6.317269897460937500e+02
2.472756195068359375e+01	-1.013849639892578125e+02	-6.306440429687500000e+02
2.473091316223144531e+01	-1.031569900512695312e+02	-6.261052856445312500e+02
2.473234939575195312e+01	-1.033768692016601562e+02	-6.256486206054687500e+02
2.473836708068847656e+01	-1.035939483642578125e+02	-6.251858520507812500e+02
2.474929237365722656e+01	-1.064644088745117188e+02	-6.090379638671875000e+02
2.475234413146972656e+01	-1.029473266601562500e+02	-6.265635375976562500e+02
2.476229476928710938e+01	-1.038285293579101562e+02	-6.247093505859375000e+02
2.476265907287597656e+01	-1.056611862182617188e+02	-6.167364501953125000e+02
2.476369285583496094e+01	-1.007329559326171875e+02	-6.311819458007812500e+02
2.477910804748535156e+01	-1.054897766113281250e+02	-6.185126953125000000e+02
2.478586769104003906e+01	-1.056713180541992188e+02	-6.154328613281250000e+02
2.478713035583496094e+01	-1.062101745605468750e+02	-6.115049438476562500e+02
2.479754638671875000e+01	-1.040489120483398438e+02	-6.242339477539062500e+02
2.480304908752441406e+01	-1.027683258056640625e+02	-6.270231323242187500e+02
2.481691169738769531e+01	-1.063895874023437500e+02	-6.095277099609375000e+02
2.483515357971191406e+01	-1.055080337524414062e+02	-6.172145996093750000e+02
2.483629798889160156e+01	-1.042526779174804688e+02	-6.237541503906250000e+02
2.483732604980468750e+01	-1.062378158569335938e+02	-6.110082397460937500e+02
2.483858871459960938e+01	-1.015897979736328125e+02	-6.302188110351562500e+02
2.483982658386230469e+01	-1.053507690429687500e+02	-6.189727783203125000e+02
2.484929275512695312e+01	-1.025956649780273438e+02	-6.274839477539062500e+02
2.485831069946289062e+01	-1.055231399536132812e+02	-6.159049072265625000e+02
2.487428474426269531e+01	-1.017546386718750000e+02	-6.297656250000000000e+02
2.487700843811035156e+01	-1.044382247924804688e+02	-6.232724609375000000e+02
2.488243103027343750e+01	-1.024252090454101562e+02	-6.279431762695312500e+02
2.488453102111816406e+01	-1.063147735595703125e+02	-6.100173950195312500e+02
2.488479804992675781e+01	-1.062667846679687500e+02	-6.105113525390625000e+02
2.489516258239746094e+01	-1.052362442016601562e+02	-6.194338989257812500e+02
2.490237045288085938e+01	-1.009354095458984375e+02	-6.307642211914062500e+02
2.490371322631835938e+01	-1.022587127685546875e+02	-6.283998413085937500e+02
2.490439987182617188e+01	-1.019284667968750000e+02	-6.293113403320312500e+02
2.490542793273925781e+01	-1.053583679199218750e+02	-6.176876831054687500e+02
2.491886520385742188e+01	-1.021017379760742188e+02	-6.288554077148437500e+02
2.492480659484863281e+01	-1.002670669555664062e+02	-6.313171997070312500e+02
2.492951202392578125e+01	-1.051402130126953125e+02	-6.198994750976562500e+02
2.493075370788574219e+01	-1.053749694824218750e+02	-6.163768920898437500e+02
2.493269157409667969e+01	-1.046165008544921875e+02	-6.227931518554687500e+02
2.494415283203125000e+01	-1.050665893554687500e+02	-6.203756103515625000e+02
2.494720268249511719e+01	-1.047333602905273438e+02	-6.223029174804687500e+02
2.495151901245117188e+01	-1.050055923461914062e+02	-6.208536987304687500e+02
2.495491218566894531e+01	-1.027045822143554688e+02	-6.261892700195312500e+02
2.496050262451171875e+01	-1.029313201904296875e+02	-6.257383422851562500e+02
2.496075248718261719e+01	-1.048406906127929688e+02	-6.218170166015625000e+02
2.496332740783691406e+01	-1.049403152465820312e+02	-6.213306274414062500e+02
2.496832847595214844e+01	-1.031547546386718750e+02	-6.252861328125000000e+02
2.497318840026855469e+01	-1.052120208740234375e+02	-6.181569213867187500e+02
2.498008918762207031e+01	-1.025076828002929688e+02	-6.266445922851562500e+02
2.499323844909667969e+01	-1.033832015991210938e+02	-6.248345947265625000e+02
2.500319480895996094e+01	-1.052267913818359375e+02	-6.168489379882812500e+02
2.502563285827636719e+01	-1.036156539916992188e+02	-6.243746948242187500e+02
2.502815818786621094e+01	-1.023330078125000000e+02	-6.271069946289062500e+02
2.503523063659667969e+01	-1.011481704711914062e+02	-6.303435668945312500e+02
2.503853225708007812e+01	-1.050697860717773438e+02	-6.186246948242187500e+02
2.506745910644531250e+01	-1.038303451538085938e+02	-6.239130859375000000e+02
2.507136917114257812e+01	-1.004809188842773438e+02	-6.308896484375000000e+02
2.507338714599609375e+01	-1.021639251708984375e+02	-6.275708618164062500e+02
2.507563781738281250e+01	-1.050786209106445312e+02	-6.173209838867187500e+02
2.508230018615722656e+01	-1.013232269287109375e+02	-6.298838500976562500e+02
2.509668540954589844e+01	-1.049439620971679688e+02	-6.190928955078125000e+02
2.510230445861816406e+01	-1.019956436157226562e+02	-6.280333862304687500e+02
2.510630798339843750e+01	-1.040248870849609375e+02	-6.234433593750000000e+02
2.511522674560546875e+01	-1.014965438842773438e+02	-6.294235229492187500e+02
2.512222862243652344e+01	-1.018344268798828125e+02	-6.284966430664062500e+02
2.514076614379882812e+01	-1.016749725341796875e+02	-6.289634399414062500e+02
2.514307212829589844e+01	-1.048387374877929688e+02	-6.195706176757812500e+02
2.514808082580566406e+01	-1.049304428100585938e+02	-6.177929687500000000e+02
2.515510368347167969e+01	-1.042085418701171875e+02	-6.229716186523437500e+02
2.516282463073730469e+01	-1.022499694824218750e+02	-6.262617187500000000e+02
2.517253494262695312e+01	-1.024813842773437500e+02	-6.258185424804687500e+02
2.517743682861328125e+01	-1.047522125244140625e+02	-6.200509643554687500e+02
2.518224525451660156e+01	-1.027127990722656250e+02	-6.253754272460937500e+02
2.518941116333007812e+01	-1.043527755737304688e+02	-6.224865112304687500e+02
2.519475364685058594e+01	-1.020639877319335938e+02	-6.267230224609375000e+02
2.520025634765625000e+01	-1.046814270019531250e+02	-6.205317382812500000e+02
2.520685386657714844e+01	-1.029440536499023438e+02	-6.249330444335937500e+02
2.520807838439941406e+01	-1.044531021118164062e+02	-6.219974975585937500e+02
2.521631813049316406e+01	-1.046206359863281250e+02	-6.210148315429687500e+02
2.521792984008789062e+01	-1.006947708129882812e+02	-6.304620971679687500e+02
2.522052383422851562e+01	-1.047822723388671875e+02	-6.182650146484375000e+02
2.522882652282714844e+01	-1.045507736206054688e+02	-6.215071411132812500e+02
2.524264526367187500e+01	-1.018954086303710938e+02	-6.271913452148437500e+02
2.524460792541503906e+01	-1.031751708984375000e+02	-6.244912109375000000e+02
2.528236389160156250e+01	-1.034062881469726562e+02	-6.240494384765625000e+02
2.528948974609375000e+01	-1.008848648071289062e+02	-6.300090942382812500e+02
2.529053497314453125e+01	-1.017268371582031250e+02	-6.276596069335937500e+02
2.529296493530273438e+01	-1.046340942382812500e+02	-6.187370605468750000e+02
2.531521224975585938e+01	-1.015650863647460938e+02	-6.281320800781250000e+02
2.532174301147460938e+01	-1.010625076293945312e+02	-6.295428466796875000e+02
2.532667732238769531e+01	-1.036064529418945312e+02	-6.235937500000000000e+02
2.533847808837890625e+01	-1.014037551879882812e+02	-6.286047363281250000e+02
2.534164047241210938e+01	-1.045331115722656250e+02	-6.192238159179687500e+02
2.535399818420410156e+01	-1.012401428222656250e+02	-6.290765380859375000e+02
2.537260627746582031e+01	-1.037989959716796875e+02	-6.231345825195312500e+02
2.538628578186035156e+01	-1.044401245117187500e+02	-6.197130737304687500e+02
2.541578483581542969e+01	-1.039803848266601562e+02	-6.226718750000000000e+02
2.542506790161132812e+01	-1.043555755615234375e+02	-6.202039794921875000e+02
2.543720245361328125e+01	-1.040735931396484375e+02	-6.221810913085937500e+02
2.544390106201171875e+01	-1.042997512817382812e+02	-6.207005004882812500e+02
2.545862007141113281e+01	-1.041667938232421875e+02	-6.216903076171875000e+02
2.546273231506347656e+01	-1.042439270019531250e+02	-6.211970214843750000e+02
